[
    {
        "id": 1 ,
        "img": "1",
        "name": "HTML"
    },
    {
        "id": 2,
        "img": "1",
        "name": "CSS"
    },
    {
        "id": 3,
        "img": "1",
        "name": "JavaScript"
    },
    {
        "id": 4,
        "img": "1",
        "name": "PHP"
    },
    {
        "id": 5,
        "img": "2",
        "name": "VueJS"
    },
    {
        "id": 6,
        "img": "2",
        "name": "ReactJS"
    },
    {
        "id": 7,
        "img": "2",
        "name": "AngularJS"
    },
    {
        "id": 8,
        "img": "6",
        "name": "Symfony"
    },
    {
        "id": 9,
        "img": "6",
        "name": "Laravel"
    },
    {
        "id": 10,
        "img": "6",
        "name": "CakePHP"
    },
    {
        "id": 11,
        "img": "6",
        "name": "Express"
    },
    {
        "id": 12,
        "img": "6",
        "name": "JEE"
    },
    {
        "id": 13,
        "img": "6",
        "name": "MySQL"
    },
    {
        "id": 14,
        "img": "6",
        "name": "PostgreSQL"
    },
    {
        "id": 15,
        "img": "6",
        "name": "NoSQL"
    },
    {
        "id": 16,
        "img": "6",
        "name": "OracleSQL"
    },
    {
        "id": 17,
        "img": "6",
        "name": "MangoDB"
    },
    {
        "id": 18,
        "img": "6",
        "name": "GraphQL"
    },
    {
        "id": 19,
        "img": "5",
        "name": "Swift"
    },
    {
        "id": 20,
        "img": "5",
        "name": "Objective-C"
    },
    {
        "id": 21,
        "img": "5",
        "name": "Kotlin"
    },
    {
        "id": 22,
        "img": "5",
        "name": "Java Mobile"
    },
    {
        "id": 23,
        "img": "5",
        "name": "ReactNative"
    },
    {
        "id": 24,
        "img": "5",
        "name": "Ionic"
    },
    {
        "id": 25,
        "img": "5",
        "name": "Cordova"
    },
    {
        "id": 26,
        "img": "5",
        "name": "Flutter"
    },
    {
        "id": 27,
        "img": "4",
        "name": "Unity"
    },
    {
        "id": 28,
        "img": "4",
        "name": "Unreal Engine"
    },
    {
        "id": 29,
        "img": "3",
        "name": "Wordpress"
    },
    {
        "id": 30,
        "img": "3",
        "name": "Prestashop"
    },
    {
        "id": 31,
        "img": "30",
        "name": "Lua"
    },
    {
        "id": 32,
        "img": "30",
        "name": "Pascal"
    },
    {
        "id": 33,
        "img": "30",
        "name": "GO"
    },
    {
        "id": 34,
        "img": "30",
        "name": "Python"
    },
    {
        "id": 35,
        "img": "30",
        "name": "Ruby"
    },
    {
        "id": 36,
        "img": "30",
        "name": "C"
    },
    {
        "id": 37,
        "img": "30",
        "name": "C#"
    },
    {
        "id": 38,
        "img": "30",
        "name": "C++"
    },
    {
        "id": 39,
        "img": "30",
        "name": "Java"
    },
    {
        "id": 40,
        "img": "30",
        "name": "GIT"
    },
    {
        "id": 41,
        "img": "30",
        "name": "Azure"
    },
    {
        "id": 42,
        "img": "30",
        "name": "Docker"
    },
    {
        "id": 43,
        "img": "30",
        "name": "Bash / Shell"
    },
    {
        "id": 1001,
        "img": "7",
        "name": "Tir à l'arc"
    },
    {
        "id": 1002,
        "img": "7",
        "name": "Basket"
    },
    {
        "id": 1003,
        "img": "7",
        "name": "Baseball"
    },
    {
        "id": 1004,
        "img": "7",
        "name": "Football"
    },
    {
        "id": 1005,
        "img": "7",
        "name": "Natation"
    },
    {
        "id": 1006,
        "img": "7",
        "name": "Trekking / Randonnée"
    },
    {
        "id": 1007,
        "img": "7",
        "name": "Golf"
    },
    {
        "id": 1008,
        "img": "7",
        "name": "Badminton"
    },
    {
        "id": 1009,
        "img": "7",
        "name": "VTT"
    },
    {
        "id": 1010,
        "img": "7",
        "name": "Tennis"
    },
    {
        "id": 1011,
        "img": "7",
        "name": "Judo"
    },
    {
        "id": 1012,
        "img": "7",
        "name": "Tennis de table"
    },
    {
        "id": 1013,
        "img": "7",
        "name": "Course"
    },
    {
        "id": 1014,
        "img": "7",
        "name": "Athlétisme"
    },
    {
        "id": 1015,
        "img": "9",
        "name": "Guitare"
    },
    {
        "id": 1016,
        "img": "9",
        "name": "Ukulélé"
    },
    {
        "id": 1017,
        "img": "9",
        "name": "Basse"
    },
    {
        "id": 1018,
        "img": "9",
        "name": "Batterie"
    },
    {
        "id": 1019,
        "img": "9",
        "name": "Piano"
    },
    {
        "id": 1020,
        "img": "9",
        "name": "Chant"
    },
    {
        "id": 1021,
        "img": "9",
        "name": "MAO"
    },
    {
        "id": 1022,
        "img": "9",
        "name": "Kazoo"
    },
    {
        "id": 1023,
        "img": "8",
        "name": "Jeux Video"
    },
    {
        "id": 1024,
        "img": "8",
        "name": "Jeux de Plateau"
    },
    {
        "id": 1025,
        "img": "8",
        "name": "Jeux de Rôle"
    },
    {
        "id": 1026,
        "img": "8",
        "name": "Jeux de cartes"
    },
    {
        "id": 1027,
        "img": "11",
        "name": "Littérature"
    },
    {
        "id": 1028,
        "img": "11",
        "name": "Cinéma"
    },
    {
        "id": 1029,
        "img": "11",
        "name": "Théatre"
    },
    {
        "id": 1030,
        "img": "11",
        "name": "Sciences"
    },
    {
        "id": 1031,
        "img": "11",
        "name": "High-tech"
    },
    {
        "id": 1032,
        "img": "20",
        "name": "Peinture"
    },
    {
        "id": 1033,
        "img": "20",
        "name": "Sculpture"
    },
    {
        "id": 1034,
        "img": "20",
        "name": "Ecriture"
    },
    {
        "id": 1035,
        "img": "20",
        "name": "Dessin"
    }
]