{
  "id": 8,
  "contact": {
    "firstName": "Robin",
    "lastName": "Laillier",
    "birthday": "30/05/1999",
    "mail": "robin.laillier@gmail.com",
    "phone": "0652910191",
    "img": "profil.png"
  },
  "social": {
    "fb": "",
    "lkdn": "https://www.linkedin.com/in/robin-laillier-77b089176/",
    "twtr": "",
    "insta": "",
    "github": "",
    "gitlab": "https://gitlab.com/RobinLaillier",
    "so": "",
    "Others": []
  },
  "medias": {
    "pdfCV": "cv.pdf",
    "linkCV": "",
    "realisations": [
      {
        "snapshot": "La ferme de Riou.png",
        "link": "http://fermederiou.com/",
        "name": "La ferme de Riou",
        "desc": "C'est un site que j'ai fais en fin d'annee pour un client"
      }
    ],
    "video": "video.mp4"
  },
  "badges": [
    { "id": 1, "enabled": true },
    { "id": 2, "enabled": true },
    { "id": 3, "enabled": true },
    { "id": 4, "enabled": true },
    { "id": 5, "enabled": true },
    { "id": 13, "enabled": true },
    { "id": 26, "enabled": false },
    { "id": 29, "enabled": true },
    { "id": 34, "enabled": true },
    { "id": 36, "enabled": true },
    { "id": 38, "enabled": false },
    { "id": 43, "enabled": true },
    { "id": 1001, "enabled": true },
    { "id": 1002, "enabled": true },
    { "id": 1005, "enabled": true },
    { "id": 1006, "enabled": true },
    { "id": 1008, "enabled": true },
    { "id": 1012, "enabled": true },
    { "id": 1015, "enabled": true },
    { "id": 1016, "enabled": true },
    { "id": 1017, "enabled": true },
    { "id": 1018, "enabled": true },
    { "id": 1019, "enabled": true },
    { "id": 1023, "enabled": true },
    { "id": 1024, "enabled": true },
    { "id": 1025, "enabled": true },
    { "id": 1028, "enabled": true },
    { "id": 1030, "enabled": true },
    { "id": 1031, "enabled": true },
    { "id": 1035, "enabled": true }
  ],
  "status": { "adopted": false, "promo": "A2 Dev" },
  "comments": []
}
